Tutorial • metacal
…
This tutorial goes through the process of estimating bias and performing calibration in the special case where the bias of all the taxa of interest can be directly measured from the control samples. It covers estimating the bias with associated uncertainty from a set of control samples, evaluating the consistency of bias across multiple controls, and using the bias estimate to calibrate samples with unknown composition.

Load the demonstration dataset

For this tutorial, we will use the data from the cell-mixtures experiment of Brooks et al. (2015), which is included in this package. Each sample is a cellular mock community consisting of an even mixture of one to seven of a set of seven bacterial species. The sample metadata and the observed and actual species abundances are stored as .csv files. The abundances are stored in standard OTU-table format with samples as rows and taxa as columns.

sam <- read_csv(system.file("extdata", "brooks2015-sample-data.csv", 
        package = "metacal"))
observed <- read_csv(system.file("extdata", "brooks2015-observed.csv", 
        package = "metacal"))
actual <- read_csv(system.file("extdata", "brooks2015-actual.csv", 
        package = "metacal"))
sam
#> # A tibble: 80 x 6
#>    Sample Plate Barcode Mixture_type Num_species Species_list              
#>    <chr>  <dbl>   <dbl> <chr>              <dbl> <chr>                     
#>  1 s1-1       1       1 Cells                  3 Lactobacillus_crispatus;P…
#>  2 s1-2       1       2 Cells                  3 Gardnerella_vaginalis;Ato…
#>  3 s1-3       1       3 Cells                  3 Gardnerella_vaginalis;Ato…
#>  4 s1-4       1       4 Cells                  3 Atopobium_vaginae;Lactoba…
#>  5 s1-5       1       5 Cells                  2 Gardnerella_vaginalis;Pre…
#>  6 s1-6       1       6 Cells                  3 Atopobium_vaginae;Lactoba…
#>  7 s1-7       1       7 Cells                  2 Atopobium_vaginae;Strepto…
#>  8 s1-8       1       8 Cells                  2 Gardnerella_vaginalis;Str…
#>  9 s1-9       1       9 Cells                  3 Atopobium_vaginae;Sneathi…
#> 10 s1-10      1      10 Cells                  3 Atopobium_vaginae;Lactoba…
#> # … with 70 more rows
observed
#> # A tibble: 80 x 9
#>    Sample Atopobium_vagin… Gardnerella_vag… Lactobacillus_c…
#>    <chr>             <dbl>            <dbl>            <dbl>
#>  1 s1-1                  1                1            13670
#>  2 s1-10              1028                0            10310
#>  3 s1-11                 0              181             3956
#>  4 s1-12              1424                0                0
#>  5 s1-13                 0                0             3199
#>  6 s1-14                 0                0             9348
#>  7 s1-15               572                0                1
#>  8 s1-16                 0                0                1
#>  9 s1-17                 2                1               19
#> 10 s1-18                 0              865             9892
#> # … with 70 more rows, and 5 more variables: Lactobacillus_iners <dbl>,
#> #   Prevotella_bivia <dbl>, Sneathia_amnii <dbl>,
#> #   Streptococcus_agalactiae <dbl>, Other <dbl>
actual
#> # A tibble: 80 x 8
#>    Sample Atopobium_vagin… Gardnerella_vag… Lactobacillus_c…
#>    <chr>             <dbl>            <dbl>            <dbl>
#>  1 s1-1              0                0                0.333
#>  2 s1-10             0.333            0                0.333
#>  3 s1-11             0                0.333            0.333
#>  4 s1-12             0.5              0                0    
#>  5 s1-13             0                0                0.333
#>  6 s1-14             0                0                0.5  
#>  7 s1-15             0.333            0                0    
#>  8 s1-16             0                0                0    
#>  9 s1-17             0                0                0    
#> 10 s1-18             0                0.5              0.5  
#> # … with 70 more rows, and 4 more variables: Lactobacillus_iners <dbl>,
#> #   Prevotella_bivia <dbl>, Sneathia_amnii <dbl>,
#> #   Streptococcus_agalactiae <dbl>
…
We can get the pairwise bias with compute_ratios(),

bias.pw <- bias %>%
    compute_ratios(group_vars = c()) %>%
    mutate(Pair = paste(Taxon.x, Taxon.y, sep = ":"))
bias.pw
#> # A tibble: 49 x 4
#>    Taxon.x Taxon.y   Bhat Pair   
#>    <chr>   <chr>    <dbl> <chr>  
#>  1 Ava     Ava     1      Ava:Ava
#>  2 Ava     Gva     1.91   Ava:Gva
#>  3 Ava     Lcr     0.149  Ava:Lcr
#>  4 Ava     Lin     0.0759 Ava:Lin
#>  5 Ava     Pbi     0.210  Ava:Pbi
#>  6 Ava     Sag     1.42   Ava:Sag
#>  7 Ava     Sam     0.0850 Ava:Sam
#>  8 Gva     Ava     0.523  Gva:Ava
#>  9 Gva     Gva     1      Gva:Gva
#> 10 Gva     Lcr     0.0780 Gva:Lcr
#> # … with 39 more rows
…
By converting the bootstrap estimates to pairwise estimates, we can also get standard errors for the pairwise bias,

bootreps.pw <- bootreps %>%
    compute_ratios(group_vars = ".id")
summary.pw <- bootreps.pw %>%
    group_by(Taxon.x, Taxon.y) %>%
    summarize(Gm_mean = gm_mean(Bhat), Gm_se = gm_sd(Bhat))
bias.pw0 <- left_join(bias.pw, summary.pw, by = c("Taxon.x", "Taxon.y"))
bias.pw0
#> # A tibble: 49 x 6
#>    Taxon.x Taxon.y   Bhat Pair    Gm_mean Gm_se
#>    <chr>   <chr>    <dbl> <chr>     <dbl> <dbl>
#>  1 Ava     Ava     1      Ava:Ava  1       1   
#>  2 Ava     Gva     1.91   Ava:Gva  1.90    1.08
#>  3 Ava     Lcr     0.149  Ava:Lcr  0.147   1.16
#>  4 Ava     Lin     0.0759 Ava:Lin  0.0756  1.13
#>  5 Ava     Pbi     0.210  Ava:Pbi  0.208   1.13
#>  6 Ava     Sag     1.42   Ava:Sag  1.41    1.12
#>  7 Ava     Sam     0.0850 Ava:Sam  0.0847  1.10
#>  8 Gva     Ava     0.523  Gva:Ava  0.526   1.08
#>  9 Gva     Gva     1      Gva:Gva  1       1   
#> 10 Gva     Lcr     0.0780 Gva:Lcr  0.0776  1.18
#> # … with 39 more rows
…
